<?xml version="1.0" encoding="utf-8"?>
<!-- Generator: Adobe Illustrator 21.0.0, SVG Export Plug-In . SVG Version: 6.00 Build 0)  -->
<svg version="1.1" id="Warstwa_1" xmlns="http://www.w3.org/2000/svg" xmlns:xlink="http://www.w3.org/1999/xlink" x="0px" y="0px"
	 viewBox="0 0 173.2 200" style="enable-background:new 0 0 173.2 200;" xml:space="preserve">
<style type="text/css">
	.st0{fill:#F9216C;}
</style>
<path id="XMLID_2_" class="st0" d="M78,199.7c3.1,0.2,6.3,0.3,9.5,0.3c9.7,0,19.2-1.1,28.3-3.1c-5.6-19.7-19.3-70.5-19.3-89.4
	c0,0,12.3-6.3,15.6-8.3c0,0-17,46.6,26.6,42.8c0,0-37.3-4.9-9.8-39.1c0,0,0,44.7,38.1,25.7c0,0-36,7.6-23.2-28.8s23.6-41.7,7.8-61.4
	s-33.8-13-33.8-13s-9.4,5.1-12.6,2c-3.2-3.2-20.4-16.3-50-22s-36,5.6-34.4,15.3c1.5,9.7-1.1,12.1-5.3,15.4C11.1,39.5,9,41.5,14,50.6
	s4.1,11.5-0.6,16C8.6,71.1,7.7,71.4,8,72s0.7,1.2,4.1-0.2c3.4-1.4,15.2-4.1,11.3-14.1c-3.9-9.9-5.8-11.4-2.3-16.3
	c0,0,0.8-1.2,1.9-0.7c1.2,0.4-0.7,6.3,2.5,10.6s4.3,6.1,5.6,7.2c1.2,1.1,1.2,2.5,0.9,8.3c-0.3,5.9-3.2,25.6-9.6,29.3
	c-6.4,3.6-4.9,5.3-4.4,5.9c0.4,0.6,3,0.7,3.8,1.3c0.9,0.6,2.9,1.4,1.6,3.3s-2.7,3.8-2.1,5.5s5,2.7,5.7,4.2c0.6,1.5,0.3,3.4-0.5,4.2
	c-0.8,0.8-1,1.8-0.3,2.2c0.8,0.4,4.8,0.4,5.9,2.2c1.1,1.8-1.2,6.3-1.2,6.3s-0.8,2.7,1.5,4.3c2.3,1.5,14.9,0.4,24.7-3.1
	s14.3-8.8,15.4-8.4s17.4,35.5,16.3,41.8C87.9,170.7,84,187.6,78,199.7z"/>
</svg>
